
1- Para generar una BD. En mysql generar una tabla
2- Crear 3 registros ABM
3- Generar una segunda tabla con algunos registros
4- Hacer una relacion entre las dos tablas

+------------------------------------------------------------------------------------+
>>>30 Ago 2018<<<

TP Practica Profesional III
1. sistema para web o escritorio
2. deberia tener la base de datos con relacion 1.* y *.*
3. debera poder instalarlo en distintas plataformas
4. debera presentarse un proyecto desde el pedido del cliente hasta su  con la doc apropiada
5. entraria como costo
	- proyecto
	- programacion 
	- mantenimeinto
	- instalacion/puesta en marcha capaca
6.como seria la venta : monotributo, inscripto


Caclular Costos:

- Sueldos: hrs de programador php
la nacion--> progr 22jrs 32ssr 43sr 
encuentasit.com-->
35000 x 34 hrs semanales, experiencia de 2 años
42000 x 40 hrs semanales, experiencia de 3 años

75000 x 40 hrs semanales, experiecnai de 10 años
- sueldo: hrs analista
25000 x 34 hrs, 24meses
40000 8 años

+-------------------------------------------------------------------------------------+
-Pensar que sistema hacer para proxima Clase
Ej. Sistema de Facturacion
Elemento que se vende: 
Productos

En un sist de stock las columnas fundamentales podrian ser:
- id del producto (PK)
- nombre del producto
- precio (Por lo general puede tener varias columnas de precios, u otra tabla que referencie a los precios. Ej, precio
por cantidad, precio por clientes destacados, precio por estado, etc)
- proveedores (si el sistema es muy complejo tambien puede existir una tabla auxiliar de proveedores)
- cantidad
- punto de pedido (para pedir actualizacion del stock a un proveedor/es es conveniente tener un sistema con punto de pedido el cual en ese valor o menor el sistema generará un pedido, ese punto deberá ser analizado por el contexto de la tabla y por la época)
- rotación de stock (es importante que mi sistema analice cuales son los productos que no salen en un periodo determinado donde calculen el capital inmovil, otro aspecto puede ser porcentaje del capital inmovil con respecto al capital general)

+------------------------------------------------------------------------------------+
PRODUCTO SEMIELABORADO
+--------+--------------------+---------+--------+						+-------+-------+-----------+
  COD			NOMBRE 			CANT 		% 								 		% 		  
+--------+--------------------+---------+--------+						+-------+-------+-----------+
   A 			xxxx 						V 								A 		20 		Z
			    xxxx 				100		F 								A       60      X
+--------+--------------------+---------+--------+                      	C       20		W
   B            xxxx						V 								E 		30 		L
   				xxxx				100		F
+--------+--------------------+---------+--------+

06Sept2018
dia 20 se darán turnos a cada grupo para mostrar en ABM Básico,
dia 27 se pedirá el trabajo Práctico, productos elaborados y semielaborados; cuando se dá de alta el producto podrá tener dos opciones que sea elaborado: si es elaborado se cargará en stock, si es semielaborado (v), se cargará los porcentaje o cantidades necesarias de la segunda tabla para se creacion.
También se podrá cargar